…
simulating with a for loop

``` r
output = vector("list", length = 500)
for (i in 1:500){
  output[[i]] = sim_regression(n_subj = 30)
}
output |> bind_rows()
```

    ## # A tibble: 500 × 2
    ##    beta_0_hat beta_1_hat
    ##         <dbl>      <dbl>
    ##  1       1.77       3.36
    ##  2       1.67       3.29
    ##  3       2.27       2.75
    ##  4       2.07       2.75
    ##  5       2.14       2.89
    ##  6       1.86       3.03
    ##  7       1.86       2.75
    ##  8       2.09       3.04
    ##  9       1.97       2.98
    ## 10       2.68       2.73
    ## # ℹ 490 more rows
…
